{
  "docs": {
    "Getting started": [
      "getting-started/introduction",
      "getting-started/installation",
      "getting-started/troubleshooting"
    ],
    "Guides": [
      "guides/architecture",
      "guides/frontend",
      "guides/backend",
      "guides/mobile",
      "guides/deployment",
      "guides/documentation",
      "guides/git"
    ],
    "Contributing": ["contributing/contributing", "contributing/license"],
    "Walk-throughs": [
      "walk-throughs/backend-modules",
      "walk-throughs/backend-tests",
      "walk-throughs/frontend-tests",
      "walk-throughs/emails",
      "walk-throughs/feature-flags",
      "walk-throughs/feed-algorithms",
      "walk-throughs/infinite-scroll",
      "walk-throughs/notifications",
      "walk-throughs/postman",
      "walk-throughs/mobile-locales",
      "walk-throughs/mobile-gitflow"
    ],
    "Handbook": [
      "handbook/how-we-work",
      "handbook/bug-reporting",
      "handbook/superhero"
    ],
    "Pro": ["pro/domains", "pro/developers"]
  }
}
